[{"id":1,"first_name":"Faber","last_name":"Lack","email":"flack0@domainmarket.com","gender":"Male","ip_address":"3.86.111.109","password":"9dMhqKg6"},
{"id":2,"first_name":"Judi","last_name":"Nesbit","email":"jnesbit1@opensource.org","gender":"Female","ip_address":"240.205.251.215","password":"dsi6AKKdeHH"},
{"id":3,"first_name":"North","last_name":"Southcott","email":"nsouthcott2@seesaa.net","gender":"Male","ip_address":"2.51.18.109","password":"fUeiR4mw"},
{"id":4,"first_name":"Gian","last_name":"Showen","email":"gshowen3@europa.eu","gender":"Male","ip_address":"87.123.227.15","password":"MQJASIi"},
{"id":5,"first_name":"Dorey","last_name":"Buzek","email":"dbuzek4@parallels.com","gender":"Female","ip_address":"18.186.181.234","password":"agMrtQe"},
{"id":6,"first_name":"Loise","last_name":"Durnill","email":"ldurnill5@bizjournals.com","gender":"Female","ip_address":"241.110.4.35","password":"E5xIqOKQ"},
{"id":7,"first_name":"Francesco","last_name":"Nestle","email":"fnestle6@delicious.com","gender":"Male","ip_address":"148.64.16.218","password":"SRXF9vjfwi"},
{"id":8,"first_name":"Reamonn","last_name":"Mergue","email":"rmergue7@cdbaby.com","gender":"Male","ip_address":"202.58.13.158","password":"bFRIJ5drQPl"},
{"id":9,"first_name":"Shem","last_name":"Walduck","email":"swalduck8@europa.eu","gender":"Male","ip_address":"224.67.251.65","password":"EpkaIqbX"},
{"id":10,"first_name":"Itch","last_name":"Guilder","email":"iguilder9@cbslocal.com","gender":"Male","ip_address":"209.54.167.123","password":"4o9CEB6"},
{"id":11,"first_name":"Reinhold","last_name":"Borrett","email":"rborretta@jugem.jp","gender":"Male","ip_address":"221.239.14.254","password":"FCg5hsGv"},
{"id":12,"first_name":"Lorrie","last_name":"Hammonds","email":"lhammondsb@nydailynews.com","gender":"Female","ip_address":"182.146.19.243","password":"zoO3wowG"},
{"id":13,"first_name":"Sheffie","last_name":"Withull","email":"swithullc@bizjournals.com","gender":"Male","ip_address":"156.85.187.122","password":"R6iVsqVkt"},
{"id":14,"first_name":"Saundra","last_name":"Portugal","email":"sportugald@wix.com","gender":"Male","ip_address":"170.210.163.179","password":"q4iDqC5fP"},
{"id":15,"first_name":"Flo","last_name":"Landeaux","email":"flandeauxe@google.de","gender":"Female","ip_address":"114.168.103.43","password":"vcjOWd"},
{"id":16,"first_name":"Elicia","last_name":"Manthroppe","email":"emanthroppef@soundcloud.com","gender":"Female","ip_address":"106.163.228.93","password":"cjeVzV9F6x"},
{"id":17,"first_name":"Allister","last_name":"Demann","email":"ademanng@prnewswire.com","gender":"Male","ip_address":"125.144.16.195","password":"R66hARGsZ"},
{"id":18,"first_name":"Sterling","last_name":"McVittie","email":"smcvittieh@oakley.com","gender":"Male","ip_address":"36.171.247.223","password":"jEAILQ9h"},
{"id":19,"first_name":"Amata","last_name":"O'Loughnan","email":"aoloughnani@bloglovin.com","gender":"Female","ip_address":"232.26.214.146","password":"Kiv8gmCNTl"},
{"id":20,"first_name":"Rem","last_name":"Peltzer","email":"rpeltzerj@mail.ru","gender":"Male","ip_address":"240.126.132.132","password":"cK0DGikt"},
{"id":21,"first_name":"Nevile","last_name":"Ethersey","email":"netherseyk@123-reg.co.uk","gender":"Male","ip_address":"185.176.206.88","password":"SslSD7Lo7g"},
{"id":22,"first_name":"Ettore","last_name":"McIlvenny","email":"emcilvennyl@privacy.gov.au","gender":"Male","ip_address":"170.110.251.210","password":"lCggtY9"},
{"id":23,"first_name":"Marge","last_name":"Barry","email":"mbarrym@1688.com","gender":"Female","ip_address":"61.55.35.241","password":"NUCwZ8o"},
{"id":24,"first_name":"Osmond","last_name":"Pedden","email":"opeddenn@yellowpages.com","gender":"Male","ip_address":"1.50.66.195","password":"1jsDaj"},
{"id":25,"first_name":"Emmalyn","last_name":"Fenemore","email":"efenemoreo@ucoz.com","gender":"Female","ip_address":"191.127.83.158","password":"wshDaYQSk"},
{"id":26,"first_name":"Martita","last_name":"Hoys","email":"mhoysp@intel.com","gender":"Female","ip_address":"216.80.237.60","password":"M2jiTr"},
{"id":27,"first_name":"Mabelle","last_name":"Hearsey","email":"mhearseyq@blog.com","gender":"Female","ip_address":"137.139.228.55","password":"aEvs4HAK"},
{"id":28,"first_name":"Bunni","last_name":"Maddie","email":"bmaddier@yellowpages.com","gender":"Female","ip_address":"38.187.111.113","password":"igbpthT"},
{"id":29,"first_name":"Neile","last_name":"Stollenhof","email":"nstollenhofs@dagondesign.com","gender":"Female","ip_address":"34.215.167.195","password":"eWZDyAk"},
{"id":30,"first_name":"Jody","last_name":"Milan","email":"jmilant@typepad.com","gender":"Female","ip_address":"20.139.8.235","password":"LhZcxFMzJ71"}]